com/palmigiros/jpa/entities/Departamentos_.class
com/palmigiros/rest/services/AppConfig.class
com/palmigiros/rest/services/DepartamentosREST.class
com/palmigiros/jpa/entities/Giros_.class
com/palmigiros/jpa/sessions/CiudadesFacade.class
com/palmigiros/jpa/entities/Clientes.class
com/palmigiros/rest/auth/DigestUtil.class
com/palmigiros/rest/auth/SecurityFilter.class
com/palmigiros/rest/auth/SecurityFilter$User.class
com/palmigiros/jpa/entities/Roles.class
com/palmigiros/jpa/entities/Ciudades.class
com/palmigiros/rest/services/UsuariosREST.class
com/palmigiros/rest/auth/AuthUtils.class
com/palmigiros/rest/services/GirosREST.class
com/palmigiros/rest/services/CiudadesREST.class
com/palmigiros/jpa/sessions/AbstractFacade.class
com/palmigiros/rest/auth/Token.class
com/palmigiros/jpa/entities/Usuarios_.class
com/palmigiros/jpa/entities/Usuarios.class
com/palmigiros/jpa/sessions/DepartamentosFacade.class
com/palmigiros/rest/auth/SecurityFilter$Authorizer.class
com/palmigiros/rest/services/ClientesREST.class
com/palmigiros/rest/auth/AuthREST.class
com/palmigiros/jpa/entities/Clientes_.class
com/palmigiros/jpa/entities/Ciudades_.class
com/palmigiros/jpa/entities/Giros.class
com/palmigiros/jpa/entities/Departamentos.class
com/palmigiros/jpa/sessions/RolesFacade.class
com/palmigiros/jpa/sessions/ClientesFacade.class
com/palmigiros/jpa/sessions/GirosFacade.class
com/palmigiros/jpa/entities/Roles_.class
com/palmigiros/jpa/sessions/UsuariosFacade.class
com/palmigiros/rest/services/RolesREST.class
