/home/bratc/NetBeansProjects/PalmiGiros/src/main/java/com/palmigiros/rest/auth/SecurityFilter.java
/home/bratc/NetBeansProjects/PalmiGiros/src/main/java/com/palmigiros/jpa/entities/Clientes.java
/home/bratc/NetBeansProjects/PalmiGiros/src/main/java/com/palmigiros/rest/services/CiudadesREST.java
/home/bratc/NetBeansProjects/PalmiGiros/src/main/java/com/palmigiros/jpa/entities/Ciudades.java
/home/bratc/NetBeansProjects/PalmiGiros/src/main/java/com/palmigiros/rest/services/RolesREST.java
/home/bratc/NetBeansProjects/PalmiGiros/src/main/java/com/palmigiros/jpa/sessions/CiudadesFacade.java
/home/bratc/NetBeansProjects/PalmiGiros/src/main/java/com/palmigiros/jpa/sessions/AbstractFacade.java
/home/bratc/NetBeansProjects/PalmiGiros/src/main/java/com/palmigiros/jpa/sessions/DepartamentosFacade.java
/home/bratc/NetBeansProjects/PalmiGiros/src/main/java/com/palmigiros/jpa/sessions/ClientesFacade.java
/home/bratc/NetBeansProjects/PalmiGiros/src/main/java/com/palmigiros/rest/services/UsuariosREST.java
/home/bratc/NetBeansProjects/PalmiGiros/src/main/java/com/palmigiros/rest/auth/AuthUtils.java
/home/bratc/NetBeansProjects/PalmiGiros/src/main/java/com/palmigiros/rest/services/DepartamentosREST.java
/home/bratc/NetBeansProjects/PalmiGiros/src/main/java/com/palmigiros/jpa/entities/Usuarios.java
/home/bratc/NetBeansProjects/PalmiGiros/src/main/java/com/palmigiros/rest/services/ClientesREST.java
/home/bratc/NetBeansProjects/PalmiGiros/src/main/java/com/palmigiros/rest/services/AppConfig.java
/home/bratc/NetBeansProjects/PalmiGiros/src/main/java/com/palmigiros/rest/auth/DigestUtil.java
/home/bratc/NetBeansProjects/PalmiGiros/src/main/java/com/palmigiros/rest/auth/Token.java
/home/bratc/NetBeansProjects/PalmiGiros/src/main/java/com/palmigiros/rest/services/GirosREST.java
/home/bratc/NetBeansProjects/PalmiGiros/src/main/java/com/palmigiros/jpa/entities/Roles.java
/home/bratc/NetBeansProjects/PalmiGiros/src/main/java/com/palmigiros/jpa/sessions/UsuariosFacade.java
/home/bratc/NetBeansProjects/PalmiGiros/src/main/java/com/palmigiros/jpa/sessions/RolesFacade.java
/home/bratc/NetBeansProjects/PalmiGiros/src/main/java/com/palmigiros/rest/auth/AuthREST.java
/home/bratc/NetBeansProjects/PalmiGiros/src/main/java/com/palmigiros/jpa/entities/Departamentos.java
/home/bratc/NetBeansProjects/PalmiGiros/src/main/java/com/palmigiros/jpa/entities/Giros.java
/home/bratc/NetBeansProjects/PalmiGiros/src/main/java/com/palmigiros/jpa/sessions/GirosFacade.java
